…
```r
# Check coverage for each analyte. 
CEDENSURF %>%
  group_by(Analyte,Matrix) %>%
  summarise(coverage = (length(unique(Subregion))),
            n = n()) 
```

```
## `summarise()` has grouped output by 'Analyte'. You can override using the `.groups` argument.
```

```
## # A tibble: 108 x 4
## # Groups:   Analyte [65]
##    Analyte            Matrix   coverage     n
##    <chr>              <chr>       <int> <int>
##  1 atrazine           sediment        3   264
##  2 atrazine           water           6  1443
##  3 atrazine degradate water           1    93
##  4 bifenthrin         sediment        6   522
##  5 bifenthrin         water           6  1018
##  6 cadmium            sediment        4    78
##  7 cadmium            water           5   314
##  8 chlorpyrifos       sediment        5   402
##  9 chlorpyrifos       water           6  2229
## 10 clothianidin       water           6   652
## # ... with 98 more rows
```
…
```r
Pyre <- CEDENSURF %>% filter(SelectList == "Pyrethroids")

Pyre %>%
  group_by(Analyte, Matrix, Unit) %>%
  summarise(n = n(),
            mean = mean(Result))
```

```
## `summarise()` has grouped output by 'Analyte', 'Matrix'. You can override using the `.groups` argument.
```

```
## # A tibble: 26 x 5
## # Groups:   Analyte, Matrix [10]
##    Analyte    Matrix   Unit         n         mean
##    <chr>      <chr>    <chr>    <int>        <dbl>
##  1 bifenthrin sediment ng/g dw    111    17.0     
##  2 bifenthrin sediment ppb        390     3.87    
##  3 bifenthrin sediment ug/Kg dw    21     0.118   
##  4 bifenthrin water    ng/L       275     0.669   
##  5 bifenthrin water    pg/L         8 77162.      
##  6 bifenthrin water    ppb        662     0.00133 
##  7 bifenthrin water    ug/L        73     0.000347
##  8 cyfluthrin sediment ng/g dw    111     2.06    
##  9 cyfluthrin sediment ppb        390     0.486   
## 10 cyfluthrin sediment ug/Kg dw    21     0       
## # ... with 16 more rows
```
…
