…
```r
# Left bind to merge MolarMass column into long data, then remove WQP parameters that won't undergo this process

# Merge
ToxUnits <- merge(Limited, MM, by = "Analyte") %>% filter(!SelectList == "WQP")

# Check that each analyte recieved MW - GOOD.
ToxUnits %>%
  group_by(Analyte) %>%
  summarise(n = n(),
            MW = mean(MW))
```

```
## # A tibble: 37 x 3
##    Analyte          n    MW
##  * <chr>        <int> <dbl>
##  1 atrazine       594 216. 
##  2 bifenthrin    1540 423. 
##  3 cadmium        392 112. 
##  4 chlorpyrifos  2631 351. 
##  5 clothianidin   223 250. 
##  6 copper         678  63.6
##  7 cyfluthrin    1437 434. 
##  8 ddd            444 320  
##  9 dde            444 318  
## 10 ddt            421 354. 
## # ... with 27 more rows
```
…
