…
```
## Note: Using an external vector in selections is ambiguous.
## i Use `all_of(C)` instead of `C` to silence this message.
## i See <https://tidyselect.r-lib.org/reference/faq-external-vector.html>.
## This message is displayed once per session.
```

```r
# Check once all columns have perfect matches?
tibble(SURF = names(SURFMod_WQ), CEDEN = names(CEDENMod_WQ))
```

```
## # A tibble: 29 x 2
##    SURF             CEDEN           
##    <chr>            <chr>           
##  1 Agency           Agency          
##  2 Analyte          Analyte         
##  3 CollectionMethod CollectionMethod
##  4 County           County          
##  5 Data.source      Data.source     
##  6 Date             Date            
##  7 Datum            Datum           
##  8 geometry         geometry        
##  9 Latitude         Latitude        
## 10 LocationCode     LocationCode    
## # ... with 19 more rows
```
…
C <- sort(names(CEDENSURF_WQ))
S <- sort(names(SURFMod_SED))

SURFMod_SED <- SURFMod_SED %>% select(S)

CEDENSURF_WQ <- CEDENSURF_WQ %>% select(C)

# Check once all columns have perfect matches?

tibble(SURF = names(SURFMod_SED), CEDEN = names(CEDENSURF_WQ))
```

```
## # A tibble: 30 x 2
##    SURF             CEDEN           
##    <chr>            <chr>           
##  1 Agency           Agency          
##  2 Analyte          Analyte         
##  3 CollectionMethod CollectionMethod
##  4 County           County          
##  5 Data.source      Data.source     
##  6 Date             Date            
##  7 Datum            Datum           
##  8 geometry         geometry        
##  9 Latitude         Latitude        
## 10 LocationCode     LocationCode    
## # ... with 20 more rows
```
…
