…
```r
## Example analytes observed in each dataset

analyte_C <- sort(unique(CEDENSURF$Analyte[CEDENSURF$Source == "CEDEN"]))
# 908 (was >1800 before splitting the column)

analyte_S <- sort(unique(CEDENSURF$Analyte[CEDENSURF$Source == "SURF"]))
# 307

# Show example of differences
tibble(CEDEN = c(analyte_C[20:40]), SURF = c(analyte_S[10:30]))
```

```
## # A tibble: 21 x 2
##    CEDEN               SURF                    
##    <chr>               <chr>                   
##  1 alkalinity as caco3 acephate                
##  2 allethrin           acet                    
##  3 aluminum            acetamiprid             
##  4 ametryn             acibenzolar-s-methyl    
##  5 aminocarb           acifluorfen, sodium salt
##  6 ammonia as n        alachlor                
##  7 ammonia as nh3      aldicarb                
##  8 ammonium as n       aldicarb sulfone        
##  9 analysisweight      aldicarb sulfoxide      
## 10 anatoxin-a          aldrin                  
## # ... with 11 more rows
```
